[
"0", "1", "2", "3", "4", "5", "6", 
"7", "8", "9", "", "01", "02", 
"", "03", "04", "05", "06", "07", 
"08", "09", "10", "11", "12", "20", 
"30", "40", "50", "60", "70", "80", 
"90", "00", "0.", "0.0", "get", "set", 
"state", "State", "sync", "Async", "config", "cfg", 
"login", "logout", "pwd", "time", "msgtype", "address", 
"object", "value", "last", "update", "bias", "weekday", 
"id", "apikey", "prior", "alarm", "tauto", "tmanu", 
"tinte", "texte", "green", "shutu", "shutd", "sqkey", 
"solar", "echooff", "service", "enable", "virtual", "Virtual", 
"device", "#", "Modbus", "seica", "RFS", "GVS", 
"TI", "TO", "LO", "/", "-", "+", 
"_", "@", "}", "}}", "}\"}", "{{", 
"\"}", "{\"", ":\"", "\":", "\",\"", "\":\"", 
":", ",", ".", "\"", "'", "<", 
">", "<>", "</", "//", "//:", "a", 
"b", "c", "d", "e", "f", "g", 
"h", "i", "j", "k", "l", "m", 
"n", "o", "p", "q", "r", "s", 
"t", "u", "v", "w", "x", "y", 
"z", "A", "B", "C", "D", "E", 
"F", "G", "H", "I", "J", "K", 
"L", "M", "N", "O", "P", "Q", 
"R", "S", "T", "U", "V", "X", 
"Y", "Z", "of", "on", "and", "th", 
"in", "an", "er", "re", "is", "at", 
"or", "en", "es", "an", "nd", "ed", 
"for", "te", "ing", "ti", "st", "in", 
"ar", "nt", "to", "ng", "le", "al", 
"ou", "be", "se", "ha", "hi", "de", 
"me", "ve", "all", "ri", "ro", "co", 
"ea", "by", "di", "ra", "ic", "not", 
"at", "ce", "la", "ne", "as", "tio", 
"io", "we", "om", "ur", "li", "ll", 
"ch", "ere", "us", "ss", "ma", "one", 
"but", "el", "so", "no", "iv", "ho", 
"hat", "ns", "wh", "tr", "ut", "ly", 
"ta", "pe", "ass", "si", "wa", "fo", 
"rs", "domo", "DOMO", "SIG", "SENSOR", "PLUG", 
"V/I", "SHOEBOX", "CARRIER", "\n", "\r", " ", 
"  "
]
