<?xml version="1.0" encoding="utf-8"?>
<!-- Generator: Adobe Illustrator 16.0.0, SVG Export Plug-In . SVG Version: 6.00 Build 0)  -->
<!DOCTYPE svg PUBLIC "-//W3C//DTD SVG 1.1//EN" "http://www.w3.org/Graphics/SVG/1.1/DTD/svg11.dtd">
<svg version="1.1" id="Livello_1" xmlns="http://www.w3.org/2000/svg" xmlns:xlink="http://www.w3.org/1999/xlink" x="0px" y="0px"
	 width="40px" height="40px" viewBox="0 0 40 40" enable-background="new 0 0 40 40" xml:space="preserve">
<g>
	<polygon fill="none" points="15.026,29.904 15.026,32.293 25.032,32.293 25.032,29.93 25.043,29.826 15.026,29.826 	"/>
	<polygon fill="none" points="19.999,37.301 25.036,34.76 15.026,34.76 	"/>
	<path fill="none" d="M19.999,2.702c-6.808,0-12.328,5.522-12.328,12.33c0,4.139,2.042,7.804,5.17,10.035
		c0.951,0.564,1.483,1.441,1.788,2.295h10.856c0.816-2.137,2.471-2.908,2.471-2.908c2.672-2.266,4.373-5.643,4.373-9.42
		C32.33,8.225,26.812,2.702,19.999,2.702z"/>
	<path fill="#089ad7" d="M19.999,0.237c-8.156,0-14.794,6.638-14.794,14.795c0,4.77,2.318,9.271,6.204,12.044l0.183,0.121
		c0.902,0.529,0.992,2.234,0.971,2.551L12.559,29.9v4.857c0,0.928,0.517,1.771,1.343,2.195l4.978,2.541
		c0.352,0.18,0.736,0.27,1.121,0.27c0.381,0,0.762-0.088,1.113-0.262l5.035-2.543c0.83-0.418,1.354-1.271,1.354-2.201v-4.83
		c0-2.434,1.484-3.238,1.502-3.24l0.545-0.354c3.336-2.824,5.245-6.94,5.245-11.303C34.794,6.875,28.157,0.237,19.999,0.237z
		 M19.999,37.301l-4.974-2.541h10.01L19.999,37.301z M25.032,29.93v2.361H15.026v-2.389v-0.076h10.017L25.032,29.93z M27.957,24.453
		c0,0-1.653,0.771-2.471,2.908H14.63c-0.305-0.854-0.837-1.73-1.788-2.295c-3.128-2.23-5.17-5.896-5.17-10.035
		c0-6.808,5.52-12.33,12.328-12.33c6.812,0,12.331,5.522,12.331,12.33C32.33,18.81,30.63,22.188,27.957,24.453z"/>
</g>
</svg>
